{
  "CooldownSeconds": 900,
  "TriggerConfigurations": {
    "ExposureConfiguration": {
      "TriggerConfiguration": {
        "Active": true,
        "Questionnaire": "https://teamkolibrie.typeform.com/to/hdMCzY",
        "Priority": 2
      }
    },
    "DistanceConfiguration": {
      "TriggerConfiguration": {
        "Active": true,
        "Questionnaire": "https://teamkolibrie.typeform.com/to/hdMCzY",
        "Priority": 2
      }
    },
    "DefaultConfiguration": {
      "TriggerConfiguration": {
        "Active": true,
        "Questionnaire": "https://teamkolibrie.typeform.com/to/hdMCzY",
        "Priority": 2
      }
    }
  }
}
